6
6
F.@GB9.4O..EI682AJ3KWZT..UDVXC.1.5NR
.1X8H.W..TD@EZ.PUKAIBY.5F9S7NG.V4..J
.JZOUNIC.3KL..45.GD9.1@V8WBPE.YX..S7
V.W.YEF157Z6NMXDSLC8.G4UA.R@JK9OHIBT
435SDR9UNVX..7O.CFP.EJLMIQ.HY.2G.W@K
KCIAMT.PMJ.G3@..W9N7Q.HRO..514E8Z.FD
1L9BQY.VJ.RKMSIUNH@WTE6C..8DF5ZAO2PX
GHCKWDL@.U.I8B3.FY2..NQ7ZT94OA1SJEM.
M.RT4JZO..S.DG.C.7X.I.KAH2..VU.3.Y89
O27XF..YBG8W59A.JEUSH3Z1QMC.PLNR.DV.
..U.A5169M2C.OT4@.JBD8GL.R.YSN.QF7IH
S@.PN..H.DFA2QWZK..O4V.9J.X.IBG5U.T.
NZS.T3.F@.WB6JG.1UQXYI.E2DVL5M8KPR4.
BM46..DEVC9Q.W..8@Z.K2.T1.3FAS.N5XGU
XDE.OKR.I.LUFNHA42W.P9MGBZ6.Q@SJ7V.Y
.RV.1A2T6.34.YKSZ..@8ONHG.UC.PLDWF..
..2U5QKGYAMJC37OPBV1SLFD9X.R.E@Z.H..
@FYLIG..7S1PTEDMXVRU6A.4WOH8KJQB392C
WYOZX7J3.9AMST2GR8.QLHEKU@PNDIV6.45B
.QP@JMX5SBUTV.Z.91Y.7..WE...C..LN.O3
3S8H.UC7DPYR4AEB..9.5TXNVK1ZLO.2IJW@
9K.I.4E.H..Z7C.@5.FV.SDB.JM.T8XY1P..
5.N.E1.I46.OLP.HMX8R3.JM.B7S.QT9KZ.G
TBF.2C8L1.Q.UD.3YWGZ@PIO.A5X69HMRS7E
YX1R..UK.EJH@.P8Q3TDO.SFLNIWG7B49AZ2
7GDJ8F5BL@I9.2REHC6.A.1PKS4.UY3EV.X.
U9B3KLPAWRN.G.5.IS.EJM28CVO...6.D@H1
I4.WZ..2T8VF1XUN.A.C9.R3DPJB.67E.QY5
25A......QO3WLY7D6HGVUB.TEF19RIC8..N
ETQN.O6.C17.KF9JB..YZ.WI58A2...USGLP
QNGY7.A9UHESJ1C..Z5TXD8@P4KO2.MI6LRF
H..4L..N8ITX.5MFGDSA1RVY67QJBWUP23C.
D..59VBR..42A.6.ET.LG7PZNC.I.F.@X1K.
.OTFRW.DG.67.KSXVIE2N...@5Z..1AHYBQ8
P862SZYJ..51OU@R7NIHCB3QXLEAMD4W....
AIJ13.@QP.CVY8B...KF.W..SH.URT.7.NDO
